<svg width="16" height="27" viewBox="0 0 16 27" fill="none" xmlns="http://www.w3.org/2000/svg">
<path d="M15.2153 0H4.42278C4.02306 0 3.75658 0.266482 3.75658 0.532965L0.0258241 14.2568C-0.107417 14.7898 0.292306 15.1895 0.825271 15.1895H4.28954L0.0258241 25.7156C-0.107417 26.515 0.69203 27.048 1.35824 26.3818L15.7483 12.6579C16.2813 12.125 15.8815 11.3255 15.2153 11.3255H9.61919L15.8815 1.06593C16.148 0.532965 15.8815 0 15.2153 0Z" fill="#4F5D73"/>
</svg>
