<svg width="36" height="35" viewBox="0 0 36 35" fill="none" xmlns="http://www.w3.org/2000/svg">
<path fill-rule="evenodd" clip-rule="evenodd" d="M1.93934 18.9393C1.35356 18.3536 1.35355 17.4038 1.93934 16.818L16.9393 1.81802C17.5251 1.23224 18.4749 1.23224 19.0607 1.81802L34.0607 16.818C34.6464 17.4038 34.6464 18.3536 34.0607 18.9393C33.4749 19.5251 32.5251 19.5251 31.9393 18.9393L18 5L4.06066 18.9393C3.47488 19.5251 2.52513 19.5251 1.93934 18.9393Z" fill="white"/>
</svg>
