<svg width="40" height="40" viewBox="0 0 40 40" fill="none" xmlns="http://www.w3.org/2000/svg">
<path d="M6.25 7.5H33.75V10H6.25V7.5Z" fill="white"/>
<path d="M6.25 18.75H33.75V21.25H6.25V18.75Z" fill="white"/>
<path d="M6.25 30H33.75V32.5H6.25V30Z" fill="white"/>
</svg>
