<svg width="27" height="39" viewBox="0 0 27 39" fill="none" xmlns="http://www.w3.org/2000/svg">
<path d="M23.7031 14.7344V10.25C23.7031 4.58858 19.1145 0 13.4531 0C7.79171 0 3.20312 4.58858 3.20312 10.25V14.7344H0V24.9844C0 32.402 6.03554 38.4375 13.4531 38.4375C20.8707 38.4375 26.9062 32.402 26.9062 24.9844V14.7344H23.7031ZM5.76562 10.25C5.76562 6.00479 9.20792 2.5625 13.4531 2.5625C17.6983 2.5625 21.1406 6.00479 21.1406 10.25V14.7344H5.76562V10.25ZM24.3438 24.9844C24.3438 30.9892 19.4579 35.875 13.4531 35.875C7.44833 35.875 2.5625 30.9892 2.5625 24.9844V17.2969H24.3438V24.9844Z" fill="#3C4B64"/>
</svg>
